{
	"Hearthpyre": {
		"InviteStart": {
			"Choices": [
				{
					"Class": "Hearthpyre.Dialogue.AttitudeChoice",
					"Text": "Would you join me in my settlement, =pronouns.siblingTerm=? {{g|[invite]}}",
					"AcceptID": "InviteWhere",
					"RejectID": "InviteReject"
				}
			]
		},
		"InviteWhere": {
			"Class": "Hearthpyre.Dialogue.SettlementChoiceNode",
			"Text": {
				"Default": "{{w|*tilts =pronouns.possessive= =anatomy.head= quizzically*}}",
				"Conversation.Animals": "{{w|*inquisitive gnarl*}}",
				"Conversation.Birds": "=onomatopoeia=",
				"Conversation.Robots": "=onomatopoeia=",
				"Conversation.Fungi": "=onomatopoeia=",
				"Conversation.Goats": "=onomatopoeia=",
				"Conversation.Insects": [
					"{{w|*perplexed clicking*}}",
					"{{w|*curious buzzing*}}"
				],
				"Conversation.Crabs": "{{w|*puzzled rasping*}}",
				"Conversation.Oozes": "{{w|*inquisitive gushing*}}",
				"Conversation.Reptiles": "{{w|*snoopy hiss*}}",
				"Conversation.Spiders": "{{w|*weaves a web of queries*}}",
				"Conversation.Issachari": [
					"Where is your salt-bereft hovel?",
					"I'm listening. Where?"
				],
				"Property.Humanoid": [
					"Where would you have me go?",
					"Where is this settlement of yours?"
				],
				"Species.Snapjaw": [
					"gnrrr.. where far go me?",
					"ooooh where!"
				],
				"Species.Hindren": [
					"Where do kendren live?",
					"I am curious, where would a kendren call home?"
				],
				"Species.Cat": [
					"{{w|*meow*}}",
					"{{w|*analytical mew*}}"
				]
			},
			"Choices": [
				{
					"Text": [
						"My apologies, I've changed my mind.",
						"Hmm. I shall have to think on it further."
					],
					"Ordinal": 999999,
					"GotoID": "Start"
				}
			]
		},
		"InviteAccept": {
			"Text": {
				"Default": "{{w|*nods mutely*}}",
				"Conversation.Animals": "{{w|*affirming gurl*}}",
				"Conversation.Birds": "=onomatopoeia=",
				"Conversation.Robots": "=onomatopoeia=",
				"Conversation.Fungi": "=onomatopoeia=",
				"Conversation.Goats": "=onomatopoeia=",
				"Conversation.Issachari": [
					"No promises, lack-salt.",
					"Don't worry lack-salt, my expectations are low."
				],
				"Property.Humanoid": [
					"I accept your hospitality, =player.formalAddressTerm=.",
					"It would be my pleasure, =player.formalAddressTerm=."
				],
				"Species.Snapjaw": [
					"gogogo! livendrink! go!",
					"ekekeke!",
					"grn. there food? warm? eheheh."
				]
			},
			"Choices": [
				{
					"Text": "Welcome, =pronouns.siblingTerm=.",
					"GotoID": "End"
				}
			]
		},
		"InviteReject": {
			"Text": {
				"Default": "{{w|*shakes =pronouns.possessive= =anatomy.head= in refusal*}}",
				"Conversation.Animals": "{{w|*disinterested yawn*}}",
				"Conversation.Birds": "=onomatopoeia=",
				"Conversation.Robots": "{{R|*BEEP BEEP BEEP*}}",
				"Conversation.Fungi": "=onomatopoeia=",
				"Conversation.Goats": "=onomatopoeia=",
				"Conversation.Issachari": [
					"No, keep moving lack-salt.",
					"Don't test me, lack-salt.",
					"I'd rather dig a hole in the salt and live there.",
					"Saltbacks have expressed more tempting offers with their refuse. No."
				],
				"Property.Humanoid": [
					"I'm otherwise committed, I apologize.",
					"I have to decline unfortunately."
				],
				"Species.Snapjaw": [
					"{{w|*snarls*}}",
					"hah! gnnnah... no.",
					"leave. bite you!"
				]
			},
			"Choices": [
				{
					"Text": "=goodbye=",
					"GotoID": "End"
				}
			]
		},
		"ManageStart": {
			"Choices": [
				{
					"Text": "A moment of your time, =pronouns.siblingTerm=? {{g|[manage]}}",
					"GotoID": "ManageOptions"
				}
			]
		},
		"ManageOptions": {
			"Text": {
				"Default": "{{w|*nods =pronouns.possessive= =anatomy.head=*}}",
				"Conversation.Animals": "{{w|*stare*}}",
				"Conversation.Birds": "=onomatopoeia=",
				"Conversation.Robots": "{{R|*BEEP BEEP BEEP*}}",
				"Conversation.Fungi": "=onomatopoeia=",
				"Conversation.Goats": "=onomatopoeia=",
				"Conversation.Issachari": [
					"Speak.",
					"I'm listening."
				],
				"Property.Humanoid": [
					"Of course, what is it =player.formalAddressTerm=?",
					"Yes? Do you need something?",
					"What do you need, =player.formalAddressTerm=?"
				],
				"Species.Snapjaw": [
					"geheh. what.",
					"hohohoho.",
					"=pronouns.siblingTerm=... uhuhu!"
				]
			},
			"Choices": [
				{
					"Class": "Hearthpyre.Dialogue.RetainerTokenChoice",
					"Text": [
						"I appoint you merchant of this settlement. {{g|[present token]}}"
					],
					"Retainer": "Merchant",
					"Stock": "HearthpyreMerchant_1",
					"IfHasBlueprint": "Merchant's Token",
					"TakeItem": "[destroy],Merchant's Token",
					"GotoID": "GenericGratitude"
				},
				{
					"Class": "Hearthpyre.Dialogue.RetainerTokenChoice",
					"Text": [
						"I appoint you warden of this settlement. {{g|[present token]}}"
					],
					"Retainer": "Warden",
					"IfHasBlueprint": "HearthpyreTokenWarden",
					"TakeItem": "[destroy],HearthpyreTokenWarden",
					"GotoID": "GenericGratitude"
				},
				{
					"Class": "Hearthpyre.Dialogue.RetainerTokenChoice",
					"Text": [
						"I appoint you tinker of this settlement. {{g|[present token]}}"
					],
					"Retainer": "Tinker",
					"Stock": "Village Tinker 1",
					"IfHasBlueprint": "HearthpyreTokenTinker",
					"TakeItem": "[destroy],HearthpyreTokenTinker",
					"GotoID": "GenericGratitude"
				},
				{
					"Text": [
						"It was nothing, carry on.",
						"Carry on, =pronouns.formalAddressTerm=."
					],
					"GotoID": "End"
				}
			]
		},
		"GenericGratitude": {
			"Text": {
				"Default": "{{w|*beams with gratitude*}}",
				"Conversation.Animals": "{{w|*gleeful gnar*}}",
				"Conversation.Birds": "=onomatopoeia=",
				"Conversation.Robots": "=onomatopoeia=",
				"Conversation.Fungi": "=onomatopoeia=",
				"Conversation.Goats": "=onomatopoeia=",
				"Conversation.Issachari": "{{w|*grins menacingly*}}",
				"Property.Humanoid": [
					"Thank you!",
					"I am grateful."
				],
				"Species.Snapjaw": [
					"ooooooh... food?",
					"{{w|*=pronouns.possessive= ears perk up*}} what! me? what!!",
					"you. heh! thank."
				]
			},
			"Choices": [
				{
					"Text": "=goodbye=",
					"GotoID": "End"
				}
			]
		}
	}
}
